<?xml version="1.0" encoding="UTF-8" standalone="no"?>
<!-- Created with Inkscape (http://www.inkscape.org/) -->

<svg
   xmlns:osb="http://www.openswatchbook.org/uri/2009/osb"
   xmlns:dc="http://purl.org/dc/elements/1.1/"
   xmlns:cc="http://creativecommons.org/ns#"
   xmlns:rdf="http://www.w3.org/1999/02/22-rdf-syntax-ns#"
   xmlns:svg="http://www.w3.org/2000/svg"
   xmlns="http://www.w3.org/2000/svg"
   xmlns:sodipodi="http://sodipodi.sourceforge.net/DTD/sodipodi-0.dtd"
   xmlns:inkscape="http://www.inkscape.org/namespaces/inkscape"
   width="88.582672"
   height="88.582672"
   id="svg2985"
   version="1.1"
   inkscape:version="0.48.4 r9939"
   sodipodi:docname="Back.svg">
  <defs
     id="defs2987">
    <linearGradient
       id="linearGradient4691"
       osb:paint="solid">
      <stop
         style="stop-color:#ff0000;stop-opacity:1;"
         offset="0"
         id="stop4693" />
    </linearGradient>
  </defs>
  <sodipodi:namedview
     id="base"
     pagecolor="#ffffff"
     bordercolor="#666666"
     borderopacity="1.0"
     inkscape:pageopacity="0.0"
     inkscape:pageshadow="2"
     inkscape:zoom="8"
     inkscape:cx="13.337887"
     inkscape:cy="90.058321"
     inkscape:document-units="mm"
     inkscape:current-layer="g4555"
     showgrid="false"
     inkscape:window-width="1920"
     inkscape:window-height="1014"
     inkscape:window-x="0"
     inkscape:window-y="27"
     inkscape:window-maximized="1"
     units="mm"
     inkscape:snap-center="false" />
  <metadata
     id="metadata2990">
    <rdf:RDF>
      <cc:Work
         rdf:about="">
        <dc:format>image/svg+xml</dc:format>
        <dc:type
           rdf:resource="http://purl.org/dc/dcmitype/StillImage" />
        <dc:title />
      </cc:Work>
    </rdf:RDF>
  </metadata>
  <g
     inkscape:label="Coin"
     inkscape:groupmode="layer"
     id="layer1"
     transform="translate(0,-963.77951)"
     style="display:inline"
     sodipodi:insensitive="true">
    <path
       sodipodi:type="arc"
       style="fill:#c8c8c9;fill-opacity:1;stroke:#000000"
       id="path2993"
       sodipodi:cx="307.14285"
       sodipodi:cy="643.79077"
       sodipodi:rx="118.57143"
       sodipodi:ry="165.71428"
       d="m 425.71428,643.79077 c 0,91.52147 -53.08624,165.71428 -118.57143,165.71428 -65.48519,0 -118.57142,-74.19281 -118.57142,-165.71428 0,-91.52147 53.08623,-165.71428 118.57142,-165.71428 65.48519,0 118.57143,74.19281 118.57143,165.71428 z"
       transform="matrix(-0.36104733,0,0,0.25833559,155.62736,841.31386)" />
  </g>
  <g
     style="display:inline"
     inkscape:label="Aais"
     id="g4555"
     inkscape:groupmode="layer">
    <path
       style="fill:#000000;fill-opacity:1;stroke:#000000;stroke-width:0.35433072;stroke-linecap:butt;stroke-linejoin:miter;stroke-miterlimit:0.05;stroke-opacity:1;stroke-dasharray:none"
       d="m 42.042601,18.678966 c 0,0 -5.347759,-6.692696 -12.564809,-7.219168 -5.978403,-0.436115 -12.627309,7.062083 -12.627309,7.062083 0,0 5.867709,-3.649244 12.439809,-3.655832 7.374021,-0.0074 12.752309,3.812917 12.752309,3.812917 z"
       id="path4038-1-8-2"
       inkscape:connector-curvature="0"
       sodipodi:nodetypes="cscsc" />
    <path
       style="fill:#000000;fill-opacity:1;stroke:#000000;stroke-width:0.35433071999999999;stroke-linecap:butt;stroke-linejoin:miter;stroke-miterlimit:0.05000000000000000;stroke-opacity:1;stroke-dasharray:none;display:inline"
       d="m 74.613826,19.058014 c 0,0 -5.347759,-6.692696 -12.564809,-7.219168 -3.760251,-0.274304 -7.722817,2.386691 -10.192323,4.550114 -0.05423,-0.07313 1.525064,-0.633208 1.525064,-0.633208 0,0 1.307907,-0.412947 2.119138,-0.652806 0.693734,-0.205118 1.983537,-0.311313 2.788897,-0.159868 0.411448,0.07233 0.918409,0.291256 1.361673,0.435198 0.722468,-0.08444 1.461693,-0.132429 2.210051,-0.133179 7.374021,-0.0074 12.752309,3.812917 12.752309,3.812917 z"
       id="path4038-1-8-2-0"
       inkscape:connector-curvature="0"
       sodipodi:nodetypes="csccsccsc" />
  </g>
  <g
     inkscape:groupmode="layer"
     id="layer2"
     inkscape:label="Cabinet"
     style="display:inline"
     sodipodi:insensitive="true">
    <path
       style="fill:#00a44b;fill-opacity:1;stroke:#000000;stroke-width:0.23041336;stroke-linecap:butt;stroke-linejoin:miter;stroke-miterlimit:4;stroke-opacity:1;stroke-dasharray:none"
       d="m 29.47226,33.228258 c 1.014298,10.818727 1.906508,20.335229 2.808162,29.952461 0.01206,-0.06637 4.071273,6.930693 4.071273,6.930693 5.946524,-0.0036 11.391589,0.01946 17.564062,0.03531 0,0 2.554508,-4.247312 2.498173,-4.239957 -0.290949,-4.600586 -1.107112,-10.270701 0.707932,-14.24562 1.608815,-3.311657 3.456853,-3.455347 3.456853,-3.455347 l -6.53e-4,-4.609843 -6.913342,-1.151574 -3.456262,-13.824565 5.761338,0 0,-6.910868 c 0,0 -1.661349,-1.570096 -3.376619,-1.484547 C 43.974065,20.654303 29.47226,33.228258 29.47226,33.228258 z"
       id="path3052"
       inkscape:connector-curvature="0"
       sodipodi:nodetypes="ccccccccccccsc" />
    <g
       id="g3910"
       transform="translate(-2.6941202,2.801885)">
      <path
         style="fill:none;stroke:#000000;stroke-width:0.23041336;stroke-linecap:butt;stroke-linejoin:miter;stroke-miterlimit:4;stroke-opacity:1;stroke-dasharray:none;display:inline"
         d="m 59.741115,61.978682 c 0,0 4.00037,-6.84864 4.002952,-6.878507 -0.335613,-3.917255 -0.335613,-8.525349 1.006836,-11.288706 -0.0043,-0.04129 3.4562,-3.697698 3.4562,-3.697698 0,-1.36979 0,-3.073746 0,-4.609854 l -6.9124,-1.152032 c -0.738581,-2.959544 -1.470312,-5.920703 -2.237465,-8.872966 0,0 4.557316,-4.930452 4.541599,-4.952549 l 0,-6.912992 c 0,0 -1.661349,-1.56727 -3.376619,-1.481721 -8.619112,0.429886 -23.120583,13.004558 -23.120583,13.004558 l -4.935493,5.290158"
         id="path3912"
         inkscape:connector-curvature="0"
         sodipodi:nodetypes="ccccccccsccc" />
    </g>
    <path
       style="fill:none;stroke:#000000;stroke-width:0.23031496;stroke-linecap:butt;stroke-linejoin:miter;stroke-miterlimit:4;stroke-opacity:1;stroke-dasharray:none;display:inline"
       d="m 60.578715,48.205817 4.935826,-5.290158"
       id="path3914-5"
       inkscape:connector-curvature="0"
       sodipodi:nodetypes="cc" />
    <path
       style="fill:none;stroke:#000000;stroke-width:0.23031496;stroke-linecap:butt;stroke-linejoin:miter;stroke-miterlimit:4;stroke-opacity:1;stroke-dasharray:none;display:inline"
       d="m 60.578715,43.546323 4.935826,-5.240506"
       id="path3914-5-2"
       inkscape:connector-curvature="0"
       sodipodi:nodetypes="cc" />
    <path
       style="fill:none;stroke:#000000;stroke-width:0.23031496;stroke-linecap:butt;stroke-linejoin:miter;stroke-miterlimit:4;stroke-opacity:1;stroke-dasharray:none;display:inline"
       d="m 53.665723,42.4444 4.935826,-5.290158"
       id="path3914-5-1"
       inkscape:connector-curvature="0"
       sodipodi:nodetypes="cc" />
    <path
       style="fill:#000019;fill-opacity:1;stroke:#000000;stroke-width:0.23031496;stroke-linecap:butt;stroke-linejoin:miter;stroke-miterlimit:4;stroke-opacity:1;stroke-dasharray:none;display:inline"
       d="m 55.968872,28.618415 4.937356,-5.290157"
       id="path3914-5-16"
       inkscape:connector-curvature="0"
       sodipodi:nodetypes="cc" />
    <path
       style="fill:none;stroke:#000000;stroke-width:0.23031496;stroke-linecap:butt;stroke-linejoin:miter;stroke-miterlimit:4;stroke-opacity:1;stroke-dasharray:none;display:inline"
       d="m 55.968872,21.708967 4.935827,-5.293701"
       id="path3914-5-5"
       inkscape:connector-curvature="0"
       sodipodi:nodetypes="cc" />
  </g>
  <g
     inkscape:groupmode="layer"
     id="layer5"
     inkscape:label="Mont"
     sodipodi:insensitive="true"
     style="display:inline">
    <path
       style="fill:#000000;fill-opacity:1;stroke:#000000;stroke-width:0.14685775;stroke-linecap:butt;stroke-linejoin:miter;stroke-miterlimit:0.05;stroke-opacity:1;stroke-dasharray:none;display:inline"
       d="m 31.022214,49.658033 c 0,0 5.784278,4.58923 13.590429,4.950236 6.466395,0.299047 13.658032,-4.842521 13.658032,-4.842521 0,0 -6.34667,2.502312 -13.455227,2.50683 -7.975935,0.0051 -13.793234,-2.614545 -13.793234,-2.614545 z"
       id="path4038-1-8-2-0-4"
       inkscape:connector-curvature="0"
       sodipodi:nodetypes="cscsc" />
  </g>
  <g
     inkscape:groupmode="layer"
     id="layer4"
     inkscape:label="Wires"
     sodipodi:insensitive="true">
    <path
       style="fill:none;stroke:#000000;stroke-width:0.35433072;stroke-linecap:butt;stroke-linejoin:miter;stroke-miterlimit:0.05;stroke-opacity:1;stroke-dasharray:none"
       d="m 41.464564,78.897764 -8.0533,6.147849"
       id="path4038-3-2-5-9"
       inkscape:connector-curvature="0"
       sodipodi:nodetypes="cc" />
    <path
       style="fill:none;stroke:#000000;stroke-width:0.35433072;stroke-linecap:butt;stroke-linejoin:miter;stroke-miterlimit:0.05;stroke-opacity:1;stroke-dasharray:none"
       d="M 21.896182,45.650735 4.6666713,58.685965"
       id="path4038"
       inkscape:connector-curvature="0"
       sodipodi:nodetypes="cc" />
    <path
       style="fill:none;stroke:#000000;stroke-width:0.35433072;stroke-linecap:butt;stroke-linejoin:miter;stroke-miterlimit:0.05;stroke-opacity:1;stroke-dasharray:none"
       d="M 22.844276,47.269913 5.5981404,60.868087"
       id="path4038-3"
       inkscape:connector-curvature="0"
       sodipodi:nodetypes="cc" />
    <path
       style="fill:none;stroke:#000000;stroke-width:0.35433072;stroke-linecap:butt;stroke-linejoin:miter;stroke-miterlimit:0.05;stroke-opacity:1;stroke-dasharray:none"
       d="M 23.841646,48.866342 6.313097,62.695008"
       id="path4038-3-2"
       inkscape:connector-curvature="0"
       sodipodi:nodetypes="cc" />
    <path
       style="fill:none;stroke:#000000;stroke-width:0.35433072;stroke-linecap:butt;stroke-linejoin:miter;stroke-miterlimit:0.05;stroke-opacity:1;stroke-dasharray:none"
       d="m 27.357277,54.975133 -8.045014,6.40312 8.821846,11.577176 -7.746455,6.06312"
       id="path4038-3-1"
       inkscape:connector-curvature="0"
       sodipodi:nodetypes="cccc" />
    <path
       style="fill:none;stroke:#000000;stroke-width:0.35433072;stroke-linecap:butt;stroke-linejoin:miter;stroke-miterlimit:0.05;stroke-opacity:1;stroke-dasharray:none"
       d="M 36.640721,70.636434 23.308649,80.81407"
       id="path4038-3-2-5"
       inkscape:connector-curvature="0"
       sodipodi:nodetypes="cc" />
    <path
       style="fill:none;stroke:#000000;stroke-width:0.35433072;stroke-linecap:butt;stroke-linejoin:miter;stroke-miterlimit:0.05;stroke-opacity:1;stroke-dasharray:none"
       d="M 21.043834,44.008122 12.51597,50.586294 2.4787766,37.457725"
       id="path4038-3-1-0"
       inkscape:connector-curvature="0"
       sodipodi:nodetypes="ccc" />
    <path
       style="fill:none;stroke:#000000;stroke-width:0.35433072;stroke-linecap:butt;stroke-linejoin:miter;stroke-miterlimit:0.05;stroke-opacity:1;stroke-dasharray:none"
       d="M 20.124702,42.396072 13.2689,47.684459 3.0731419,34.348488"
       id="path4038-3-1-0-1"
       inkscape:connector-curvature="0"
       sodipodi:nodetypes="ccc" />
    <path
       style="fill:none;stroke:#000000;stroke-width:0.35433072;stroke-linecap:butt;stroke-linejoin:miter;stroke-miterlimit:0.05;stroke-opacity:1;stroke-dasharray:none"
       d="m 28.334992,56.345328 -6.71748,5.346521 8.821846,11.577176 -8.556788,6.697364"
       id="path4038-3-1-9"
       inkscape:connector-curvature="0"
       sodipodi:nodetypes="cccc" />
    <path
       style="fill:none;stroke:#000000;stroke-width:0.35433072;stroke-linecap:butt;stroke-linejoin:miter;stroke-miterlimit:0.05;stroke-opacity:1;stroke-dasharray:none"
       d="M 7.2735621,64.506732 14.799854,58.52695 25.504499,72.745405 18.966748,77.862477"
       id="path4038-3-1-7"
       inkscape:connector-curvature="0"
       sodipodi:nodetypes="cccc" />
    <path
       style="fill:none;stroke:#000000;stroke-width:0.35433072;stroke-linecap:butt;stroke-linejoin:miter;stroke-miterlimit:0.05;stroke-opacity:1;stroke-dasharray:none"
       d="m 40.761233,77.501194 -6.724676,5.352248 -4.033726,-5.293581 -5.376088,4.176517"
       id="path4038-3-1-1"
       inkscape:connector-curvature="0"
       sodipodi:nodetypes="cccc" />
    <path
       style="fill:none;stroke:#000000;stroke-width:0.35433072;stroke-linecap:butt;stroke-linejoin:miter;stroke-miterlimit:0.05;stroke-opacity:1;stroke-dasharray:none"
       d="M 3.8842924,56.456028 9.8105634,51.884657 1.9865131,41.650859"
       id="path4038-3-1-0-8"
       inkscape:connector-curvature="0"
       sodipodi:nodetypes="ccc" />
    <path
       style="fill:none;stroke:#000000;stroke-width:0.35433072;stroke-linecap:butt;stroke-linejoin:miter;stroke-miterlimit:0.05;stroke-opacity:1;stroke-dasharray:none"
       d="m 12.410076,29.387466 -6.3530719,4.900593 -2.21859,-2.901898"
       id="path4038-3-1-0-1-0"
       inkscape:connector-curvature="0"
       sodipodi:nodetypes="ccc" />
    <path
       style="fill:none;stroke:#000000;stroke-width:0.35433072;stroke-linecap:butt;stroke-linejoin:miter;stroke-miterlimit:0.05;stroke-opacity:1;stroke-dasharray:none"
       d="m 13.644809,31.531491 -6.1449643,4.866529 6.3281223,8.405334 5.127756,-4.013475"
       id="path4038-3-1-7-8"
       inkscape:connector-curvature="0"
       sodipodi:nodetypes="cccc" />
    <path
       style="fill:none;stroke:#000000;stroke-width:0.35433072;stroke-linecap:butt;stroke-linejoin:miter;stroke-miterlimit:0.05;stroke-opacity:1;stroke-dasharray:none"
       d="M 50.397642,86.286399 48.47142,83.866253 54.328644,79.403029 51.139093,75.204511"
       id="path4038-3-1-1-6"
       inkscape:connector-curvature="0"
       sodipodi:nodetypes="cccc" />
    <path
       style="fill:none;stroke:#000000;stroke-width:0.35433072;stroke-linecap:butt;stroke-linejoin:miter;stroke-miterlimit:0.05;stroke-opacity:1;stroke-dasharray:none"
       d="M 52.302829,85.948295 50.696237,83.92974 56.553461,79.466516 51.983526,73.450951"
       id="path4038-3-1-1-6-8"
       inkscape:connector-curvature="0"
       sodipodi:nodetypes="cccc" />
    <path
       style="fill:none;stroke:#000000;stroke-width:0.35433072;stroke-linecap:butt;stroke-linejoin:miter;stroke-miterlimit:0.05;stroke-opacity:1;stroke-dasharray:none"
       d="m 54.597987,85.468691 -1.392985,-1.750175 5.857224,-4.463223 -5.931193,-7.807436"
       id="path4038-3-1-1-6-8-6"
       inkscape:connector-curvature="0"
       sodipodi:nodetypes="cccc" />
    <path
       style="fill:none;stroke:#000000;stroke-width:0.35433072;stroke-linecap:butt;stroke-linejoin:miter;stroke-miterlimit:0.05;stroke-opacity:1;stroke-dasharray:none"
       d="M 63.443008,82.358046 54.022116,69.956997"
       id="path4038-3-1-1-6-8-6-1"
       inkscape:connector-curvature="0"
       sodipodi:nodetypes="cc" />
    <path
       style="fill:none;stroke:#000000;stroke-width:0.35433072;stroke-linecap:butt;stroke-linejoin:miter;stroke-miterlimit:0.05;stroke-opacity:1;stroke-dasharray:none"
       d="M 64.978985,81.665123 54.991145,68.517781"
       id="path4038-3-1-1-6-8-6-1-3"
       inkscape:connector-curvature="0"
       sodipodi:nodetypes="cc" />
    <path
       style="fill:none;stroke:#000000;stroke-width:0.35433072;stroke-linecap:butt;stroke-linejoin:miter;stroke-miterlimit:0.05;stroke-opacity:1;stroke-dasharray:none"
       d="m 55.806575,66.878971 5.778184,7.259833 5.857224,-4.463224 5.127497,6.749505"
       id="path4038-3-1-1-6-4"
       inkscape:connector-curvature="0"
       sodipodi:nodetypes="cccc" />
    <path
       style="fill:none;stroke:#000000;stroke-width:0.35433072;stroke-linecap:butt;stroke-linejoin:miter;stroke-miterlimit:0.05;stroke-opacity:1;stroke-dasharray:none"
       d="m 66.475567,80.78672 -4.316438,-5.423265 5.068331,-3.862085 4.266636,5.616323"
       id="path4038-3-1-1-6-4-1"
       inkscape:connector-curvature="0"
       sodipodi:nodetypes="cccc" />
    <path
       style="fill:none;stroke:#000000;stroke-width:0.35433072;stroke-linecap:butt;stroke-linejoin:miter;stroke-miterlimit:0.05;stroke-opacity:1;stroke-dasharray:none"
       d="M 73.55487,75.531985 60.700892,58.611846"
       id="path4038-3-1-1-6-8-6-1-32"
       inkscape:connector-curvature="0"
       sodipodi:nodetypes="cc" />
    <path
       style="fill:none;stroke:#000000;stroke-width:0.35433072;stroke-linecap:butt;stroke-linejoin:miter;stroke-miterlimit:0.05;stroke-opacity:1;stroke-dasharray:none"
       d="M 74.851681,74.173632 61.724433,56.893779"
       id="path4038-3-1-1-6-8-6-1-32-0-8"
       inkscape:connector-curvature="0"
       sodipodi:nodetypes="cc" />
    <path
       style="fill:none;stroke:#000000;stroke-width:0.35433072;stroke-linecap:butt;stroke-linejoin:miter;stroke-miterlimit:0.05;stroke-opacity:1;stroke-dasharray:none"
       d="M 76.024852,72.924535 62.669,55.225575"
       id="path4038-3-1-1-6-8-6-1-32-0-8-7"
       inkscape:connector-curvature="0"
       sodipodi:nodetypes="cc" />
    <path
       style="fill:none;stroke:#000000;stroke-width:0.35433072;stroke-linecap:butt;stroke-linejoin:miter;stroke-miterlimit:0.05;stroke-opacity:1;stroke-dasharray:none"
       d="m 63.722547,53.788587 5.778184,7.259833 5.857224,-4.463224 6.549372,8.624505"
       id="path4038-3-1-1-6-4-6"
       inkscape:connector-curvature="0"
       sodipodi:nodetypes="cccc" />
    <path
       style="fill:none;stroke:#000000;stroke-width:0.35433072;stroke-linecap:butt;stroke-linejoin:miter;stroke-miterlimit:0.05;stroke-opacity:1;stroke-dasharray:none"
       d="m 83.424667,62.263604 -9.90861,-13.031425 5.857224,-4.463222 -5.931193,-7.807436"
       id="path4038-3-1-1-6-8-6-0"
       inkscape:connector-curvature="0"
       sodipodi:nodetypes="cccc" />
    <path
       style="fill:none;stroke:#000000;stroke-width:0.35433072;stroke-linecap:butt;stroke-linejoin:miter;stroke-miterlimit:0.05;stroke-opacity:1;stroke-dasharray:none"
       d="M 82.612493,63.990096 68.53212,45.444618"
       id="path4038-3-1-1-6-8-6-1-32-0-8-2"
       inkscape:connector-curvature="0"
       sodipodi:nodetypes="cc" />
    <path
       style="fill:none;stroke:#000000;stroke-width:0.35433072;stroke-linecap:butt;stroke-linejoin:miter;stroke-miterlimit:0.05;stroke-opacity:1;stroke-dasharray:none"
       d="m 84.475672,59.944656 -8.080485,-10.6408 5.857224,-4.463221 -7.524943,-9.916811"
       id="path4038-3-1-1-6-8-6-0-5"
       inkscape:connector-curvature="0"
       sodipodi:nodetypes="cccc" />
    <path
       style="fill:none;stroke:#000000;stroke-width:0.35433072;stroke-linecap:butt;stroke-linejoin:miter;stroke-miterlimit:0.05;stroke-opacity:1;stroke-dasharray:none"
       d="M 87.354046,47.880971 75.961173,32.89018"
       id="path4038-3-1-1-6-8-6-1-32-0-8-2-5"
       inkscape:connector-curvature="0"
       sodipodi:nodetypes="cc" />
    <path
       style="fill:none;stroke:#000000;stroke-width:0.35433072;stroke-linecap:butt;stroke-linejoin:miter;stroke-miterlimit:0.05;stroke-opacity:1;stroke-dasharray:none"
       d="M 87.520782,45.219812 76.877908,31.205584"
       id="path4038-3-1-1-6-8-6-1-32-0-8-2-8"
       inkscape:connector-curvature="0"
       sodipodi:nodetypes="cc" />
    <path
       style="fill:none;stroke:#000000;stroke-width:0.35433072;stroke-linecap:butt;stroke-linejoin:miter;stroke-miterlimit:0.05;stroke-opacity:1;stroke-dasharray:none"
       d="m 85.122136,58.195687 -6.503938,-8.548265 5.068331,-3.862085 3.399449,4.460073"
       id="path4038-3-1-1-6-4-1-8"
       inkscape:connector-curvature="0"
       sodipodi:nodetypes="cccc" />
    <path
       style="fill:none;stroke:#000000;stroke-width:0.35433072;stroke-linecap:butt;stroke-linejoin:miter;stroke-miterlimit:0.05;stroke-opacity:1;stroke-dasharray:none"
       d="M 11.325924,27.461495 6.010089,31.634676 4.3725333,29.485265"
       id="path4038-3-1-0-1-0-7"
       inkscape:connector-curvature="0"
       sodipodi:nodetypes="ccc" />
    <path
       style="fill:none;stroke:#000000;stroke-width:0.35433072;stroke-linecap:butt;stroke-linejoin:miter;stroke-miterlimit:0.05;stroke-opacity:1;stroke-dasharray:none"
       d="M 12.870521,20.901099 10.61405,17.960706"
       id="path4038-3-1-1-6-8-6-1-32-0-8-1"
       inkscape:connector-curvature="0"
       sodipodi:nodetypes="cc" />
    <path
       style="fill:none;stroke:#000000;stroke-width:0.35433072;stroke-linecap:butt;stroke-linejoin:miter;stroke-miterlimit:0.05;stroke-opacity:1;stroke-dasharray:none"
       d="m 40.313327,1.2419925 7.993721,10.5615495 -5.291163,4.134865"
       id="path4038-3-1-9-6"
       inkscape:connector-curvature="0"
       sodipodi:nodetypes="ccc" />
    <path
       style="fill:none;stroke:#000000;stroke-width:0.35433072;stroke-linecap:butt;stroke-linejoin:miter;stroke-miterlimit:0.05;stroke-opacity:1;stroke-dasharray:none"
       d="M 37.979383,1.5756772 45.035604,10.8716 40.784185,14.292312"
       id="path4038-3-1-9-6-1"
       inkscape:connector-curvature="0"
       sodipodi:nodetypes="ccc" />
    <path
       style="fill:none;stroke:#000000;stroke-width:0.35433072;stroke-linecap:butt;stroke-linejoin:miter;stroke-miterlimit:0.05;stroke-opacity:1;stroke-dasharray:none"
       d="m 42.394792,1.1309371 6.242223,8.2652503 5.989807,-4.6952435 3.81272,5.0148815"
       id="path4038-3-1-1-6-4-6-3"
       inkscape:connector-curvature="0"
       sodipodi:nodetypes="cccc" />
    <path
       style="fill:none;stroke:#000000;stroke-width:0.35433072;stroke-linecap:butt;stroke-linejoin:miter;stroke-miterlimit:0.05;stroke-opacity:1;stroke-dasharray:none"
       d="m 44.120292,1.0329854 4.839057,6.3649014 6.398602,-5.0598459 5.127497,6.7495055"
       id="path4038-3-1-1-6-4-6-2"
       inkscape:connector-curvature="0"
       sodipodi:nodetypes="cccc" />
    <path
       style="fill:none;stroke:#000000;stroke-width:0.35433072;stroke-linecap:butt;stroke-linejoin:miter;stroke-miterlimit:0.05;stroke-opacity:1;stroke-dasharray:none"
       d="M 68.917215,8.4453237 66.912597,10.007033"
       id="path4038-1"
       inkscape:connector-curvature="0"
       sodipodi:nodetypes="cc" />
    <path
       style="fill:none;stroke:#000000;stroke-width:0.35433072;stroke-linecap:butt;stroke-linejoin:miter;stroke-miterlimit:0.05;stroke-opacity:1;stroke-dasharray:none"
       d="m 78.203759,28.846517 1.623932,2.100163 4.553495,-3.535146"
       id="path4038-3-1-1-6-4-7"
       inkscape:connector-curvature="0"
       sodipodi:nodetypes="ccc" />
    <path
       style="fill:none;stroke:#000000;stroke-width:0.35433072;stroke-linecap:butt;stroke-linejoin:miter;stroke-miterlimit:0.05;stroke-opacity:1;stroke-dasharray:none"
       d="m 79.392787,26.77722 1.259878,1.607374 3.072991,-2.397146"
       id="path4038-3-1-1-6-4-0"
       inkscape:connector-curvature="0"
       sodipodi:nodetypes="ccc" />
    <path
       style="fill:none;stroke:#000000;stroke-width:0.35433072;stroke-linecap:butt;stroke-linejoin:miter;stroke-miterlimit:0.05;stroke-opacity:1;stroke-dasharray:none"
       d="m 32.334903,2.8059763 4.443901,5.8117561 -2.306429,1.7940656"
       id="path4038-3-1-9-6-1-5"
       inkscape:connector-curvature="0"
       sodipodi:nodetypes="ccc" />
    <path
       style="fill:none;stroke:#000000;stroke-width:0.35433072;stroke-linecap:butt;stroke-linejoin:miter;stroke-miterlimit:0.05;stroke-opacity:1;stroke-dasharray:none"
       d="M 13.702677,19.871051 11.446206,16.930658"
       id="path4038-3-1-1-6-8-6-1-32-0-8-1-6"
       inkscape:connector-curvature="0"
       sodipodi:nodetypes="cc" />
    <path
       style="fill:none;stroke:#000000;stroke-width:0.35433072;stroke-linecap:butt;stroke-linejoin:miter;stroke-miterlimit:0.05;stroke-opacity:1;stroke-dasharray:none"
       d="M 14.423322,18.914976 12.166851,15.974583"
       id="path4038-3-1-1-6-8-6-1-32-0-8-1-2"
       inkscape:connector-curvature="0"
       sodipodi:nodetypes="cc" />
    <path
       style="fill:none;stroke:#000000;stroke-width:0.35433072;stroke-linecap:butt;stroke-linejoin:miter;stroke-miterlimit:0.05;stroke-opacity:1;stroke-dasharray:none"
       d="M 24.045945,10.612295 21.789474,7.6719017"
       id="path4038-3-1-1-6-8-6-1-32-0-8-1-8"
       inkscape:connector-curvature="0"
       sodipodi:nodetypes="cc" />
    <path
       style="fill:none;stroke:#000000;stroke-width:0.35433072;stroke-linecap:butt;stroke-linejoin:miter;stroke-miterlimit:0.05;stroke-opacity:1;stroke-dasharray:none"
       d="M 24.973353,9.9442025 22.716882,7.0038095"
       id="path4038-3-1-1-6-8-6-1-32-0-8-1-6-0"
       inkscape:connector-curvature="0"
       sodipodi:nodetypes="cc" />
    <path
       style="fill:none;stroke:#000000;stroke-width:0.35433072;stroke-linecap:butt;stroke-linejoin:miter;stroke-miterlimit:0.05;stroke-opacity:1;stroke-dasharray:none"
       d="M 25.836875,9.4834355 23.580404,6.5430425"
       id="path4038-3-1-1-6-8-6-1-32-0-8-1-2-6"
       inkscape:connector-curvature="0"
       sodipodi:nodetypes="cc" />
    <path
       style="fill:none;stroke:#000000;stroke-width:0.35433072;stroke-linecap:butt;stroke-linejoin:miter;stroke-miterlimit:0.05;stroke-opacity:1;stroke-dasharray:none"
       d="M 26.817573,9.193843 24.42775,6.043896"
       id="path4038-3-1-1-6-8-6-1-32-0-8-1-2-6-2"
       inkscape:connector-curvature="0"
       sodipodi:nodetypes="cc" />
    <path
       style="fill:none;stroke:#000000;stroke-width:0.35433072;stroke-linecap:butt;stroke-linejoin:miter;stroke-miterlimit:0.05;stroke-opacity:1;stroke-dasharray:none"
       d="m 69.916452,9.122131 -2.004618,1.561665"
       id="path4038-1-8"
       inkscape:connector-curvature="0"
       sodipodi:nodetypes="cc" />
    <path
       style="fill:none;stroke:#000000;stroke-width:0.35433072;stroke-linecap:butt;stroke-linejoin:miter;stroke-miterlimit:0.05;stroke-opacity:1;stroke-dasharray:none"
       d="M 70.760121,9.8096521 68.755503,11.371317"
       id="path4038-1-8-0"
       inkscape:connector-curvature="0"
       sodipodi:nodetypes="cc" />
    <path
       style="fill:none;stroke:#000000;stroke-width:0.35433072;stroke-linecap:butt;stroke-linejoin:miter;stroke-miterlimit:0.05;stroke-opacity:1;stroke-dasharray:none"
       d="m 71.601421,10.445308 -2.004618,1.561665"
       id="path4038-1-8-5"
       inkscape:connector-curvature="0"
       sodipodi:nodetypes="cc" />
    <path
       style="fill:none;stroke:#000000;stroke-width:0.35433072;stroke-linecap:butt;stroke-linejoin:miter;stroke-miterlimit:0.05;stroke-opacity:1;stroke-dasharray:none"
       d="m 79.090047,18.351884 -2.004618,1.561665"
       id="path4038-1-8-3"
       inkscape:connector-curvature="0"
       sodipodi:nodetypes="cc" />
    <path
       style="fill:none;stroke:#000000;stroke-width:0.35433072;stroke-linecap:butt;stroke-linejoin:miter;stroke-miterlimit:0.05;stroke-opacity:1;stroke-dasharray:none"
       d="m 79.861819,19.244567 -2.004618,1.561665"
       id="path4038-1-8-57"
       inkscape:connector-curvature="0"
       sodipodi:nodetypes="cc" />
  </g>
  <g
     inkscape:groupmode="layer"
     id="layer3"
     inkscape:label="Heard"
     sodipodi:insensitive="true"
     style="display:inline">
    <path
       style="fill:none;stroke:#000000;stroke-width:0.35433072;stroke-linecap:butt;stroke-linejoin:miter;stroke-miterlimit:4;stroke-opacity:1;stroke-dasharray:none"
       d="m 9.7440945,24.803145 35.4330705,60.23622 35.433071,-60.23622 c 0,0 -9.197631,-14.736707 -16.830708,-15.9448823 C 56.99604,7.7845617 45.177165,17.71653 45.177165,17.71653 c 0,0 -10.530647,-9.5673126 -16.830708,-8.8582673 C 20.230774,9.7716485 9.7440945,24.803145 9.7440945,24.803145 z"
       id="path3860"
       inkscape:connector-curvature="0"
       sodipodi:nodetypes="cccacac" />
  </g>
</svg>
